<!-- Generated by IcoMoon.io -->
<svg version="1.1" xmlns="http://www.w3.org/2000/svg" width="32" height="32" viewBox="0 0 32 32">
<title>Customized-Laptop</title>
<path d="M15.559 1.721v2.429c0 0.244 0.197 0.441 0.441 0.441s0.441-0.197 0.441-0.441v0-2.429c0-0.244-0.198-0.441-0.441-0.441s-0.441 0.198-0.441 0.441v0z"></path>
<path d="M10.669 6.412c0.079 0.075 0.186 0.121 0.304 0.121 0.244 0 0.441-0.198 0.441-0.441 0-0.126-0.053-0.239-0.137-0.32l-0-0-1.8-1.709c-0.079-0.075-0.186-0.121-0.304-0.121-0.244 0-0.441 0.198-0.441 0.441 0 0.126 0.053 0.239 0.137 0.32l0 0z"></path>
<path d="M21.027 6.533c0 0 0.001 0 0.001 0 0.117 0 0.224-0.046 0.303-0.121l-0 0 1.799-1.71c0.085-0.081 0.137-0.194 0.137-0.32 0-0.244-0.198-0.441-0.441-0.441-0.118 0-0.225 0.046-0.304 0.122l0-0-1.799 1.711c-0.085 0.081-0.138 0.194-0.138 0.32 0 0.244 0.197 0.441 0.441 0.441 0 0 0 0 0.001 0h-0z"></path>
<path d="M19.16 8.16c-0.824-0.768-1.932-1.24-3.151-1.24-0.006 0-0.012 0-0.018 0h0.001c-0.092 0-0.185 0.003-0.277 0.008-1.175 0.070-2.22 0.576-2.985 1.358l-0.001 0.001c-0.749 0.751-1.216 1.784-1.226 2.926v0.002c0.012 1.76 1.086 3.265 2.613 3.91l0.028 0.011c0.162 0.068 0.276 0.223 0.281 0.405l0 0.001v0.5h3.15v-0.48c0.006-0.181 0.117-0.334 0.273-0.402l0.003-0.001c1.548-0.669 2.619-2.168 2.652-3.921l0-0.004c-0.001-1.212-0.517-2.304-1.341-3.068l-0.003-0.002z"></path>
<path d="M12.652 26.841l0.509 0.531c0.381 0.399 0.918 0.648 1.512 0.648 0 0 0 0 0 0h2.654c0.003 0 0.006 0 0.010 0 0.59 0 1.123-0.245 1.502-0.639l0.001-0.001 0.509-0.544c0.083-0.086 0.199-0.139 0.327-0.139 0.002 0 0.004 0 0.006 0h10.418v-16.208c-0.020-1.11-0.925-2.001-2.037-2.001-0.010 0-0.019 0-0.029 0l0.001-0h-7.736c0.424 0.476 0.757 1.043 0.968 1.667l0.010 0.034h6.791c0.003-0 0.007-0 0.011-0 0.249 0 0.453 0.194 0.469 0.44l0 0.001v14.026c-0.019 0.229-0.209 0.407-0.44 0.407-0.014 0-0.028-0.001-0.041-0.002l0.002 0h-24.137c-0.012 0.001-0.026 0.002-0.039 0.002-0.232 0-0.422-0.178-0.44-0.405l-0-0.002v-14.025c0.016-0.247 0.22-0.441 0.47-0.441 0.004 0 0.007 0 0.011 0h6.798c0.223-0.658 0.557-1.225 0.986-1.706l-0.004 0.005h-7.747c-0.008-0-0.018-0-0.027-0-1.112 0-2.017 0.892-2.037 1.999l-0 0.002v16.208h10.419c0.131 0.001 0.249 0.056 0.333 0.144l0 0z"></path>
<path d="M17.047 19.149c0 0 0.001 0 0.001 0 0.291 0 0.527-0.236 0.527-0.527 0-0.007-0-0.014-0-0.021l0 0.001v-1.469h-3.15v1.469c-0 0.006-0 0.013-0 0.020 0 0.291 0.236 0.527 0.527 0.527 0 0 0.001 0 0.001 0h-0z"></path>
<path d="M19.497 27.973c-0.547 0.572-1.316 0.928-2.168 0.928-0.002 0-0.004 0-0.006 0h-2.647c-0.002 0-0.004 0-0.006 0-0.852 0-1.621-0.356-2.166-0.927l-0.376-0.396h-11.488v1.438c0 0.002 0 0.005 0 0.008 0 0.546 0.226 1.039 0.59 1.39l0.001 0.001c0.364 0.35 0.859 0.566 1.405 0.566 0.011 0 0.022-0 0.033-0l-0.002 0h26.664c0.009 0 0.020 0 0.031 0 0.546 0 1.041-0.216 1.406-0.567l-0.001 0.001c0.365-0.352 0.592-0.845 0.592-1.391 0-0.003 0-0.005-0-0.008v0-1.438h-11.488z"></path>
<path d="M18.536 16.048v2.554c0 0.005 0 0.010 0 0.016 0 0.389-0.161 0.741-0.419 0.993l-0 0c-0.266 0.26-0.63 0.42-1.032 0.42-0.002 0-0.003 0-0.005 0h-2.162c-0.001 0-0.003 0-0.005 0-0.402 0-0.766-0.16-1.032-0.42l0 0c-0.259-0.252-0.419-0.604-0.419-0.994 0-0.006 0-0.011 0-0.017v0.001-2.568c-1.783-0.804-3.003-2.565-3.008-4.611v-0.001c-0-0.025-0.001-0.054-0.001-0.083 0-0.201 0.013-0.399 0.038-0.593l-0.002 0.023h-1.475c0.178 0.064 0.303 0.232 0.303 0.428 0 0.251-0.203 0.454-0.454 0.454-0.001 0-0.001 0-0.002 0h-2.608c-0.001 0-0.001 0-0.002 0-0.251 0-0.454-0.203-0.454-0.454 0-0.197 0.125-0.364 0.3-0.427l0.003-0.001h-1.807v13.106h23.411v-13.106h-1.807c0.178 0.064 0.303 0.232 0.303 0.428 0 0.251-0.203 0.454-0.454 0.454-0 0-0.001 0-0.001 0h-2.609c-0 0-0.001 0-0.001 0-0.251 0-0.454-0.203-0.454-0.454 0-0.197 0.125-0.364 0.3-0.427l0.003-0.001h-1.472c0.022 0.171 0.035 0.369 0.035 0.57 0 0.036-0 0.072-0.001 0.108l0-0.005c-0.021 2.041-1.234 3.793-2.976 4.595l-0.032 0.013z"></path>
</svg>
