<!-- Generated by IcoMoon.io -->
<svg version="1.1" xmlns="http://www.w3.org/2000/svg" width="32" height="32" viewBox="0 0 32 32">
<title>employee-profile</title>
<path d="M10.524 10.181c0.006-0.002 0.607-0.187 0.607-0.187 0.432-0.133 0.892 0.096 1.046 0.521l0.823 2.257 0.823-2.257c0.155-0.424 0.615-0.653 1.046-0.521 0 0 0.601 0.185 0.607 0.187 0.896 0.298 1.533 1.068 1.675 1.979v-6.691c0-0.343-0.278-0.621-0.621-0.621h-7.062c-0.343 0-0.621 0.278-0.621 0.621v6.691c0.142-0.911 0.78-1.681 1.675-1.979zM13 5.75c1.103 0 2 0.897 2 2s-0.897 2-2 2-2-0.897-2-2c0-1.103 0.897-2 2-2z"></path>
<path d="M15.13 11.884l-0.918 2.518h1.272v-1.854c0-0.271-0.137-0.518-0.355-0.663z"></path>
<path d="M10.515 12.547v1.854h1.272l-0.918-2.518c-0.218 0.145-0.355 0.392-0.355 0.664z"></path>
<path d="M26.869 0h-21.737c-0.625 0-1.131 0.506-1.131 1.131v29.737c0 0.625 0.506 1.131 1.131 1.131h21.737c0.625 0 1.131-0.506 1.131-1.131v-29.737c0-0.625-0.506-1.131-1.131-1.131zM7.152 4c0-0.469 0.38-0.849 0.848-0.849h10c0.469 0 0.849 0.38 0.849 0.849v11.25c0 0.469-0.38 0.849-0.849 0.849h-10c-0.469 0-0.848-0.38-0.848-0.848v-11.25zM24 26.849h-16c-0.469 0-0.848-0.38-0.848-0.849s0.38-0.849 0.848-0.849h16c0.469 0 0.849 0.38 0.849 0.849s-0.38 0.849-0.849 0.849zM24 20.849h-16c-0.469 0-0.848-0.38-0.848-0.849s0.38-0.849 0.848-0.849h16c0.469 0 0.849 0.38 0.849 0.849s-0.38 0.849-0.849 0.849zM24 12.848h-2c-0.469 0-0.849-0.38-0.849-0.848s0.38-0.848 0.849-0.848h2c0.469 0 0.849 0.38 0.849 0.848s-0.38 0.848-0.849 0.848zM24 8.848h-2c-0.469 0-0.849-0.38-0.849-0.848s0.38-0.848 0.849-0.848h2c0.469 0 0.849 0.38 0.849 0.848s-0.38 0.848-0.849 0.848z"></path>
</svg>
