<!-- Generated by IcoMoon.io -->
<svg version="1.1" xmlns="http://www.w3.org/2000/svg" width="32" height="32" viewBox="0 0 32 32">
<title>Fan</title>
<path d="M17.222 13.308c0.715-0.658 3.63-3.53 3.406-6.414-0.19-2.446-3.016-3.182-4.583-3.182s-4.387 0.736-4.576 3.182c-0.219 2.825 2.579 5.64 3.365 6.371 0.301-0.3 0.716-0.486 1.174-0.486 0.479 0 0.911 0.203 1.214 0.528l0.001 0.001z"></path>
<path d="M12.779 16.534c0-0.283 0.071-0.549 0.196-0.782l-0.004 0.009c-1.032-0.316-4.86-1.323-7.194 0.277-2.023 1.388-1.248 4.203-0.464 5.56s2.831 3.431 5.044 2.373c2.356-1.127 3.422-4.468 3.763-5.805-0.77-0.156-1.342-0.827-1.342-1.632v-0z"></path>
<path d="M26.221 16.093c-2.316-1.588-6.104-0.604-7.171-0.28 0.108 0.214 0.171 0.466 0.171 0.733 0 0.81-0.58 1.484-1.347 1.63l-0.010 0.002c0.328 1.301 1.393 4.708 3.778 5.849 2.213 1.059 4.264-1.021 5.047-2.378s1.556-4.168-0.468-5.555z"></path>
<path d="M16 0.64c-8.483 0-15.36 6.877-15.36 15.36s6.877 15.36 15.36 15.36c8.483 0 15.36-6.877 15.36-15.36v0c-0.010-8.479-6.881-15.35-15.359-15.36h-0.001zM16 29.714c-7.574 0-13.714-6.14-13.714-13.714s6.14-13.714 13.714-13.714c7.574 0 13.714 6.14 13.714 13.714v0c-0.009 7.571-6.144 13.706-13.713 13.714h-0.001z"></path>
</svg>
