<!-- Generated by IcoMoon.io -->
<svg version="1.1" xmlns="http://www.w3.org/2000/svg" width="32" height="32" viewBox="0 0 32 32">
<title>Hardware</title>
<path d="M29.212 27.123v-22.248l-12.068-4.024v30.296z"></path>
<path d="M10.011 19.84c0 0.303-0.246 0.548-0.548 0.548s-0.548-0.246-0.548-0.548c0-0.303 0.246-0.548 0.548-0.548v0c0.303 0 0.548 0.246 0.548 0.548v0z"></path>
<path d="M10.011 24.228c0 0.303-0.246 0.548-0.548 0.548s-0.548-0.246-0.548-0.548c0-0.303 0.246-0.548 0.548-0.548v0c0.303 0 0.548 0.246 0.548 0.548v0z"></path>
<path d="M5.074 3.931h8.776v1.097h-8.776z"></path>
<path d="M16.044 31.36v-30.72h-13.164v30.72zM5.623 29.714h-1.097v-2.194h1.097zM7.817 29.714h-1.097v-2.194h1.097zM10.011 29.714h-1.097v-2.194h1.097zM9.463 25.874c-0 0-0 0-0 0-0.909 0-1.646-0.737-1.646-1.646s0.737-1.646 1.646-1.646c0.909 0 1.646 0.737 1.646 1.646v0c0 0.909-0.737 1.646-1.646 1.646v0zM7.817 19.84c0-0.909 0.737-1.645 1.645-1.645s1.645 0.737 1.645 1.645-0.737 1.645-1.645 1.645v0c-0.909-0-1.645-0.737-1.645-1.646v0zM12.205 29.714h-1.097v-2.194h1.097zM14.399 29.714h-1.097v-2.194h1.098zM14.399 11.612h-9.874v-1.097h9.875zM14.399 9.417h-9.874v-1.097h9.875zM3.977 3.383c0-0.303 0.246-0.548 0.548-0.548v0h9.875c0.303 0 0.548 0.246 0.548 0.548v0 2.194c0 0 0 0 0 0 0 0.303-0.246 0.548-0.548 0.548h-9.875c-0.303 0-0.548-0.246-0.548-0.548v0z"></path>
</svg>
