<!-- Generated by IcoMoon.io -->
<svg version="1.1" xmlns="http://www.w3.org/2000/svg" width="32" height="32" viewBox="0 0 32 32">
<title>Internet-issues1</title>
<path d="M3.701 11.905h4.081v1.020h-4.081v-1.020z"></path>
<path d="M3.701 16.002h4.081v1.020h-4.081v-1.020z"></path>
<path d="M19.004 17.536c-0.008-0.001-0.018-0.001-0.028-0.001-0.267 0-0.483 0.216-0.483 0.483 0 0.011 0 0.021 0.001 0.031l-0-0.001c0 1.434-0.459 2.048-0.867 2.56-0.237 0.291-0.427 0.631-0.554 1.001l-0.007 0.023h-0.102c-0.009-0.107-0.014-0.232-0.014-0.358 0-0.437 0.061-0.861 0.175-1.262l-0.008 0.032c0.086-0.27 0.135-0.58 0.135-0.902 0-0.472-0.106-0.919-0.296-1.319l0.008 0.019c-0.079-0.181-0.256-0.305-0.462-0.305-0.278 0-0.503 0.225-0.503 0.503 0 0.077 0.017 0.15 0.048 0.215l-0.001-0.003c0.306 0.666 0.204 1.024 0.102 1.587-0.105 0.42-0.166 0.902-0.166 1.399 0 0.138 0.005 0.276 0.014 0.412l-0.001-0.018h-0.204c-0.184-0.287-0.293-0.636-0.293-1.012 0-0.131 0.013-0.259 0.039-0.383l-0.002 0.012c0.016-0.131 0.026-0.282 0.026-0.436 0-0.774-0.239-1.493-0.646-2.086l0.008 0.012c-0.093-0.148-0.255-0.244-0.439-0.244-0.286 0-0.517 0.232-0.517 0.517 0 0.108 0.033 0.209 0.090 0.292l-0.001-0.002c0.275 0.421 0.439 0.936 0.439 1.489 0 0.143-0.011 0.283-0.032 0.421l0.002-0.015c-0.018 0.123-0.029 0.265-0.029 0.409 0 0.634 0.203 1.221 0.547 1.699l-0.006-0.009v2.918c-0.002 1.692-1.37 3.064-3.060 3.072h-1.533c-1.691-0.008-3.059-1.38-3.061-3.072v-0c0.564-0.002 1.020-0.46 1.020-1.024 0 0 0 0 0 0v0-1.024c0.283 0 0.512-0.229 0.512-0.512s-0.229-0.512-0.512-0.512v0-1.126c1.225-0.461 2.551-2.458 2.551-4.506v-9.728c0 0 0 0 0 0 0-0.564-0.456-1.022-1.020-1.024h-1.021v-4.096c0 0 0 0 0 0 0-0.564-0.456-1.022-1.020-1.024h-4.132c-0.564 0.002-1.020 0.46-1.020 1.024 0 0 0 0 0 0v0 4.096h-1.020c-0.564 0.002-1.020 0.46-1.020 1.024 0 0 0 0 0 0v0 9.728c0 2.048 1.326 4.045 2.551 4.506v1.126c-0.283 0-0.512 0.229-0.512 0.512s0.229 0.512 0.512 0.512v0 1.024c0 0 0 0 0 0 0 0.564 0.456 1.022 1.020 1.024h0c0.004 3.384 2.739 6.127 6.12 6.144h1.532c3.382-0.017 6.118-2.76 6.122-6.144v-3.072c0-0.307 0.153-0.512 0.459-0.87 0.67-0.809 1.076-1.857 1.076-3 0-0.079-0.002-0.158-0.006-0.237l0 0.011c0 0 0 0 0 0 0-0.282-0.228-0.511-0.51-0.512h-0zM3.701 1.664h4.081v4.096h-4.081zM2.681 11.392c-0.001-0.009-0.001-0.019-0.001-0.030 0-0.267 0.216-0.483 0.483-0.483 0.010 0 0.020 0 0.029 0.001l-0.001-0h5.101c0.008-0.001 0.018-0.001 0.028-0.001 0.267 0 0.483 0.216 0.483 0.483 0 0.011-0 0.021-0.001 0.031l0-0.001v2.048c0.001 0.009 0.001 0.019 0.001 0.030 0 0.267-0.216 0.483-0.483 0.483-0.010 0-0.020-0-0.029-0.001l0.001 0h-5.101c-0.008 0.001-0.018 0.001-0.028 0.001-0.267 0-0.483-0.216-0.483-0.483 0-0.011 0-0.021 0.001-0.031l-0 0.001v-2.048zM3.191 18.048c-0.008 0.001-0.018 0.001-0.028 0.001-0.267 0-0.483-0.216-0.483-0.483 0-0.011 0-0.021 0.001-0.031l-0 0.001v-2.048c-0.001-0.009-0.001-0.019-0.001-0.030 0-0.267 0.216-0.483 0.483-0.483 0.010 0 0.020 0 0.029 0.001l-0.001-0h5.101c0.008-0.001 0.018-0.001 0.028-0.001 0.267 0 0.483 0.216 0.483 0.483 0 0.011-0 0.021-0.001 0.031l0-0.001v2.048c0.001 0.009 0.001 0.019 0.001 0.030 0 0.267-0.216 0.483-0.483 0.483-0.010 0-0.020-0-0.029-0.001l0.001 0zM7.272 24.192h-3.061v-1.024h3.061v1.024zM7.272 22.144h-3.061v-1.024h3.061z"></path>
<path d="M25.238 0.64h-3.571c-3.382 0.017-6.117 2.76-6.121 6.144v4.608c0 0.307-0.153 0.512-0.459 0.87-0.67 0.809-1.077 1.857-1.077 3 0 0.079 0.002 0.158 0.006 0.237l-0-0.011c0 0.282 0.228 0.51 0.51 0.51s0.51-0.228 0.51-0.51v0c0-1.434 0.459-2.048 0.867-2.56 0.237-0.291 0.427-0.631 0.554-1.001l0.007-0.023h0.102c0.009 0.107 0.014 0.232 0.014 0.358 0 0.437-0.061 0.861-0.175 1.262l0.008-0.033c-0.086 0.27-0.135 0.58-0.135 0.902 0 0.472 0.106 0.919 0.296 1.319l-0.008-0.019c0.075 0.182 0.25 0.307 0.455 0.307 0.002 0 0.003 0 0.005-0h-0c0.010 0.001 0.021 0.002 0.032 0.002 0.064 0 0.124-0.020 0.173-0.054l-0.001 0.001c0.177-0.082 0.298-0.258 0.298-0.463 0-0.073-0.015-0.143-0.043-0.206l0.001 0.003c-0.306-0.666-0.204-1.024-0.102-1.587 0.105-0.42 0.166-0.902 0.166-1.399 0-0.138-0.005-0.276-0.014-0.412l0.001 0.018h0.204c0.184 0.287 0.293 0.636 0.293 1.012 0 0.131-0.013 0.259-0.039 0.383l0.002-0.012c-0.016 0.127-0.025 0.275-0.025 0.424 0 0.761 0.239 1.466 0.645 2.045l-0.008-0.011c0.085 0.144 0.234 0.242 0.406 0.256l0.002 0c0.102 0 0.204 0 0.256-0.102 0.146-0.090 0.242-0.249 0.242-0.431 0-0.107-0.033-0.206-0.090-0.288l0.001 0.002c-0.213-0.407-0.338-0.89-0.338-1.401 0-0.156 0.012-0.309 0.034-0.459l-0.002 0.017c0.019-0.124 0.029-0.266 0.029-0.411 0-0.633-0.202-1.219-0.545-1.697l0.006 0.009v-4.454c0.002-1.692 1.37-3.064 3.060-3.072h3.568c1.691 0.008 3.059 1.38 3.061 3.072v24.064c-0.001 0.009-0.001 0.019-0.001 0.030 0 0.267 0.216 0.483 0.483 0.483 0.010 0 0.020-0 0.030-0.001l-0.001 0h2.041c0.008 0.001 0.018 0.001 0.028 0.001 0.267 0 0.483-0.216 0.483-0.483 0-0.011-0-0.021-0.001-0.031l0 0.001v-24.064c-0.004-3.384-2.74-6.128-6.12-6.144h-0.002z"></path>
</svg>
