<?xml version="1.0" encoding="utf-8"?>
<!-- Svg Vector Icons : http://www.onlinewebfonts.com/icon -->
<!DOCTYPE svg PUBLIC "-//W3C//DTD SVG 1.1//EN" "http://www.w3.org/Graphics/SVG/1.1/DTD/svg11.dtd">
<svg version="1.1" xmlns="http://www.w3.org/2000/svg" xmlns:xlink="http://www.w3.org/1999/xlink" x="0px" y="0px" viewBox="0 0 1000 1000" enable-background="new 0 0 1000 1000" xml:space="preserve">
<metadata> Svg Vector Icons : http://www.onlinewebfonts.com/icon </metadata>
<g><path d="M500,10C229.4,10,10,229.4,10,500c0,270.6,219.4,490,490,490c270.6,0,490-219.4,490-490C990,229.4,770.6,10,500,10z M550.5,867.5C538.8,879.2,525.3,885,510,885c-18.7,0-33.8-5.9-45.3-17.8c-11.5-11.8-17.3-25.4-17.3-40.7c0-16.2,5.9-30.1,17.8-41.8c11.8-11.7,26-17.5,42.5-17.5c16.5,0,30.7,5.8,42.5,17.5c11.8,11.7,17.8,25.6,17.8,41.8C568,842.2,562.2,855.8,550.5,867.5z M693.3,374.8c-10.3,24.8-37.1,57.7-80.4,98.9c-32.7,30.9-54.7,55-65.9,72.5c-11.2,17.5-16.8,36.3-16.8,56.6c0,22.8,5.4,46.4,16.4,71.1h-87.4c-7.8-23.1-11.7-47.7-11.7-73.9c0-20.6,4.7-41.4,14-62.4c9.4-21,33.2-50.1,71.5-87.2c39.3-37.1,63.3-65,72.2-83.7c8.9-18.7,13.3-36.5,13.3-53.3c0-29.9-10.6-53.5-31.8-70.8c-21.2-17.3-48.1-25.9-80.9-25.9c-57,0-106.9,22.4-149.6,67.3v-95.8c52-32.4,106.1-48.6,162.2-48.6c57.3,0,103.4,14.5,138.1,43.5c34.7,29,52.1,68.6,52.1,118.7C708.7,325.7,703.6,350.1,693.3,374.8z"/></g>
</svg>