<!-- Generated by IcoMoon.io -->
<svg version="1.1" xmlns="http://www.w3.org/2000/svg" width="32" height="32" viewBox="0 0 32 32">
<title>Payroll</title>
<path d="M10.717 13.74c0.278 1.83 1.677 4.158 3.974 4.977 0.431 0.159 0.93 0.251 1.45 0.251 0.526 0 1.031-0.094 1.497-0.267l-0.030 0.010c2.259-0.825 3.702-3.148 3.987-4.971 0.304-0.026 0.702-0.454 1.133-1.996 0.588-2.105-0.038-2.418-0.57-2.368 0.088-0.241 0.167-0.531 0.223-0.829l0.005-0.035c0.899-5.457-1.76-5.643-1.76-5.643-0.392-0.637-0.934-1.148-1.578-1.493l-0.022-0.011c-0.776-0.462-1.71-0.735-2.709-0.735-0.203 0-0.403 0.011-0.6 0.033l0.024-0.002c-0.476 0.025-0.923 0.114-1.344 0.26l0.034-0.010c-0.551 0.195-1.028 0.448-1.46 0.76l0.017-0.012c-0.561 0.363-1.047 0.773-1.476 1.236l-0.005 0.005c-0.759 0.761-1.318 1.723-1.591 2.798l-0.009 0.042c-0.095 0.409-0.15 0.878-0.15 1.36 0 0.502 0.059 0.991 0.172 1.459l-0.009-0.042c0.060 0.332 0.139 0.622 0.24 0.902l-0.012-0.038c-0.532-0.051-1.158 0.262-0.57 2.368 0.436 1.537 0.833 1.965 1.138 1.991z"></path>
<path d="M26.648 20.721c-2.24-0.626-4.2-1.55-5.96-2.745l0.070 0.045-2.449 7.792-0.006-0.019-0.338 1.049-1.088-3.104c2.671-3.749-0.541-3.712-0.719-3.704-0.178-0.006-3.39-0.045-0.719 3.704l-1.088 3.104-0.337-1.049-0.006 0.019-0.388-1.235-2.067-6.557c-1.69 1.15-3.649 2.074-5.748 2.666l-0.142 0.034c-2.423 0.62-2.538 3.436-2.443 4.824 0 0 0.14 1.888 0.28 2.72 0 0 4.732 3.090 12.658 3.096 7.925 0 12.658-3.096 12.658-3.096 0.14-0.832 0.28-2.72 0.28-2.72 0.090-1.388-0.025-4.203-2.448-4.824z"></path>
</svg>
