<!-- Generated by IcoMoon.io -->
<svg version="1.1" xmlns="http://www.w3.org/2000/svg" width="32" height="32" viewBox="0 0 32 32">
<title>Pen</title>
<path d="M2.184 25.453l21.812-21.811 4.362 4.362-21.811 21.812z"></path>
<path d="M28.358 9.569l-0.99 0.992 1.489 1.488-5.459 5.46 0.992 0.992 5.955-5.954c0.127-0.127 0.205-0.302 0.205-0.496s-0.078-0.369-0.205-0.496v0z"></path>
<path d="M30.343 6.62c0.635-0.635 1.028-1.512 1.028-2.481 0-1.938-1.571-3.509-3.509-3.509-0.969 0-1.846 0.393-2.481 1.028v0l-0.496 0.497 4.963 4.962z"></path>
<path d="M0.64 31.361l4.123-0.952-3.172-3.172z"></path>
</svg>
