<!-- Generated by IcoMoon.io -->
<svg version="1.1" xmlns="http://www.w3.org/2000/svg" width="32" height="32" viewBox="0 0 32 32">
<title>Printer-Offline</title>
<path d="M9.578 23.384v4.816h12.843v-8.027h-12.843zM11.184 21.779h9.632v1.605h-9.632zM11.184 24.99h9.632v1.605h-9.632z"></path>
<path d="M22.421 8.936v-4.816h-12.843v8.027h12.843z"></path>
<path d="M25.633 8.936h-1.605v4.816h-16.054v-4.816h-1.605c-1.605 0-3.211 1.605-3.211 3.211v8.027c0 1.605 1.605 3.211 3.211 3.211h1.605v-4.817h16.054v4.817h1.605c1.605 0 3.211-1.605 3.211-3.211v-8.027c-0-1.605-1.606-3.211-3.211-3.211z"></path>
<path d="M29.089 3.884l-1.611 1.61 1.609 1.609c0.117 0.112 0.19 0.269 0.19 0.443 0 0.338-0.274 0.613-0.613 0.613-0.174 0-0.331-0.073-0.443-0.189l-0-0-1.607-1.61-1.61 1.609c-0.11 0.105-0.259 0.17-0.423 0.17-0.338 0-0.613-0.274-0.613-0.613 0-0.164 0.065-0.314 0.17-0.424l1.609-1.608-1.609-1.61c-0.105-0.11-0.17-0.259-0.17-0.423 0-0.338 0.274-0.613 0.613-0.613 0.164 0 0.313 0.065 0.423 0.17l1.61 1.609 1.608-1.609c0.11-0.108 0.261-0.174 0.428-0.174 0.338 0 0.613 0.274 0.613 0.613 0 0.166-0.066 0.317-0.174 0.428l0-0z"></path>
</svg>
