<svg xmlns="http://www.w3.org/2000/svg" xmlns:xlink="http://www.w3.org/1999/xlink" viewBox="0 0 100 100">
  <defs>
    <style>
      .cls-1 {
        clip-path: url(#clip-Raise_an_issue);
      }

      .cls-2 {
        fill: #fff;
      }
    </style>
    <clipPath id="clip-Raise_an_issue">
      <rect width="100" height="100"/>
    </clipPath>
  </defs>
  <g id="Raise_an_issue" data-name="Raise an issue" class="cls-1">
    <rect class="cls-2" width="100" height="100"/>
    <g id="_52e6f7e1e3c6ae04447bb7fe1fae5648" data-name="52e6f7e1e3c6ae04447bb7fe1fae5648" transform="translate(-7 -35.6)">
      <path id="Path_27" data-name="Path 27" d="M27.814,123.708a5.936,5.936,0,0,0,5.941,5.941h8.907a5.936,5.936,0,0,0,5.941-5.941V99.963H72.348l26.711,17.814A5.936,5.936,0,0,0,105,111.835V46.541A5.942,5.942,0,0,0,99.059,40.6L72.329,58.414H33.745C20.632,58.414,10,66.08,10,79.193c0,11.088,7.54,18.812,17.814,20.779C27.94,100.767,27.814,123.708,27.814,123.708ZM42.652,99.963v20.779a2.966,2.966,0,0,1-2.966,2.966H36.721a2.966,2.966,0,0,1-2.966-2.966V99.963ZM33.745,64.345c-6.087-.194-17.814,1.725-17.814,14.838S27.843,94.022,33.745,94.022H57.49V64.345ZM72.329,94.031H63.422V64.345h8.907Zm26.721,17.8L78.27,97V61.379L99.049,46.541C99.049,50.156,99.049,108.5,99.049,111.835Z" transform="translate(0 0)"/>
    </g>
  </g>
</svg>
