<!-- Generated by IcoMoon.io -->
<svg version="1.1" xmlns="http://www.w3.org/2000/svg" width="32" height="32" viewBox="0 0 32 32">
<title>Sales-Prospecting-Opportunity</title>
<path d="M1.014 15.34l1.706 0.893c0.123 0.076 0.272 0.121 0.431 0.121 0.336 0 0.625-0.2 0.755-0.488l0.002-0.005 4.16-9.21s0.372-0.816-0.224-1.188l-1.858-0.89s-0.596-0.372-0.965 0.372c0 0.298-4.308 9.358-4.308 9.358s-0.295 0.741 0.301 1.036zM28.79 16.233l1.709-0.816c0.316-0.138 0.534-0.449 0.534-0.81 0-0.138-0.032-0.268-0.088-0.384l0.002 0.005-4.311-9.138s-0.372-0.816-1.039-0.521l-1.858 0.966c-0.235 0.135-0.391 0.385-0.391 0.671 0 0.135 0.035 0.262 0.095 0.372l-0.002-0.004c0.224 0.224 4.384 9.284 4.384 9.284s0.372 0.67 0.965 0.375zM5.1 16.233l0.596-1.262 2.004 2.674s1.337-0.298 1.784 0.521c0.188 0.273 0.301 0.611 0.301 0.976 0 0.182-0.028 0.358-0.080 0.522l0.003-0.012s0.298 0.224 0.298 0.298c0.086-0.017 0.185-0.026 0.287-0.026 0.869 0 1.574 0.705 1.574 1.574 0 0.031-0.001 0.061-0.003 0.091l0-0.004s0.372 0.149 0.448 0.372c0 0 0.89-0.224 1.337 0.298 0.286 0.291 0.477 0.677 0.521 1.106l0.001 0.008 0.816 0.596s0.741 0.075 0.89 0.667l0.741 0.596s1.188 0.521 1.262-0.741l-2.748-2.227s-0.298-0.89 0.667-0.741l4.16 3.046c0.101 0.042 0.217 0.067 0.34 0.067 0.327 0 0.613-0.174 0.771-0.435l0.002-0.004c0.081-0.142 0.128-0.312 0.128-0.493 0-0.27-0.106-0.514-0.277-0.696l0 0-4.536-3.194s-0.371-0.892 0.596-0.817l5.199 3.862s0.741 0.298 1.039-0.298c0.12-0.165 0.192-0.371 0.192-0.594s-0.072-0.429-0.194-0.597l0.002 0.003-5.72-4.392s-0.372-1.039 0.741-0.741l5.943 4.38s0.89 0.298 1.262-0.448c0.117-0.184 0.187-0.407 0.187-0.647 0-0.325-0.128-0.621-0.336-0.839l0 0-8.391-7.645s-1.56-0.741-2.451 0.816c-0.14 1.614-1.376 2.901-2.954 3.119l-0.018 0.002s-1.932-0.149-1.486-1.486c0 0 0.596-0.741 0.521-2.451 0.082-0.816 0.375-1.551 0.824-2.165l-0.009 0.012h-3.046l0.667-1.412h4.532s1.858-1.114 3.269-1.039c0 0 1.858 0.075 2.302 0.372 0 0 2.451 0.816 3.564 0.596l4.16 8.912-0.667 1.56c0.382 0.429 0.615 0.997 0.615 1.62 0 0.442-0.118 0.857-0.324 1.215l0.006-0.012c-0.224 0.521-0.89 1.039-1.932 1.039 0 0 0.149 1.039-0.596 1.635 0 0-0.521 0.741-1.784 0.521 0 0.009 0 0.019 0 0.029 0 0.619-0.288 1.171-0.738 1.528l-0.004 0.003s-1.039 0.89-2.599-0.224c-0.202 0.674-0.775 1.173-1.477 1.262l-0.009 0.001s-0.89 0.149-1.412-0.372c0 0-0.965 1.858-2.302 0.816-0.285-0.248-0.465-0.611-0.465-1.016 0-0.287 0.090-0.553 0.243-0.772l-0.003 0.004s-1.188 1.932-2.525 0.448c0 0-0.741-0.596-0.075-1.858 0 0-1.114 1.262-2.302 0.149 0 0-0.816-0.667-0.149-2.004 0 0-1.114 1.412-2.451 0.075 0 0-0.521-0.521-0.224-1.709l1.262-1.784-1.78-2.23z"></path>
</svg>
