<!-- Generated by IcoMoon.io -->
<svg version="1.1" xmlns="http://www.w3.org/2000/svg" width="32" height="32" viewBox="0 0 32 32">
<title>Sales-Target</title>
<path d="M14.432 31.321c7.618-0.004 13.792-6.181 13.792-13.799 0-2.369-0.597-4.599-1.649-6.546l0.036 0.073c-0.099 0.014-0.213 0.022-0.33 0.022-0.004 0-0.008 0-0.012-0h0.001c-0.064 0-0.132-0.003-0.2-0.006l-1.755-0.135-1.262 1.262c0.957 1.521 1.525 3.37 1.525 5.352 0 5.606-4.545 10.151-10.151 10.151s-10.151-4.545-10.151-10.151c0-5.606 4.545-10.151 10.151-10.151 1.978 0 3.824 0.566 5.384 1.544l-0.042-0.025 1.143-1.143-0.155-2.012c-0.005-0.061-0.008-0.133-0.008-0.205 0-0.097 0.005-0.193 0.015-0.287l-0.001 0.012c-1.839-0.97-4.018-1.539-6.331-1.539-7.617 0-13.792 6.175-13.792 13.792s6.174 13.791 13.79 13.792h0z"></path>
<path d="M14.433 13.965q0.135 0 0.27 0.010l2.601-2.601c-0.844-0.404-1.835-0.64-2.88-0.64-3.755 0-6.798 3.044-6.798 6.798s3.044 6.798 6.798 6.798c3.755 0 6.798-3.044 6.798-6.798 0-1.043-0.235-2.032-0.655-2.915l0.018 0.041-2.603 2.601q0.010 0.135 0.010 0.27c-0.001 1.967-1.595 3.561-3.563 3.561s-3.563-1.595-3.563-3.563 1.595-3.563 3.563-3.563c0.001 0 0.001 0 0.002 0h-0z"></path>
<path d="M28.646 5.231l0.818-0.818c0.173-0.172 0.28-0.411 0.28-0.675s-0.107-0.502-0.28-0.675l-0-0-0.567-0.568c-0.172-0.173-0.41-0.28-0.673-0.28s-0.501 0.107-0.673 0.28l-0.937 0.937-0.192-2.496c-0.014-0.166-0.152-0.296-0.321-0.296-0.088 0-0.168 0.036-0.227 0.093l-3.686 3.686c-0.291 0.292-0.472 0.694-0.472 1.139 0 0.043 0.002 0.086 0.005 0.128l-0-0.006 0.010 0.145 0.177 2.308-7.139 7.139c-0.131 0.131-0.217 0.307-0.232 0.503l-0 0.003-0.064 0.808c-0.002 0.019-0.003 0.042-0.003 0.064 0 0.444 0.36 0.804 0.804 0.805h0.042l0.853-0.042c0.207-0.010 0.392-0.098 0.528-0.235l7.246-7.245 2.199 0.166c0.042 0.003 0.084 0.003 0.122 0.003 0.445-0 0.847-0.18 1.14-0.47l3.683-3.683c0.059-0.058 0.095-0.139 0.095-0.228 0-0.169-0.131-0.308-0.297-0.319l-0.001-0z"></path>
</svg>
