<!-- Generated by IcoMoon.io -->
<svg version="1.1" xmlns="http://www.w3.org/2000/svg" width="32" height="32" viewBox="0 0 32 32">
<title>Stationery</title>
<path d="M12.774 12.291h10.791v4.316h-10.791z"></path>
<path d="M5.76 25.836l0.017-0.015c0.039-0.040 0.083-0.077 0.124-0.116s0.094-0.090 0.144-0.132 0.089-0.067 0.133-0.101c0.054-0.040 0.105-0.082 0.16-0.119 0.046-0.032 0.096-0.058 0.141-0.087 0.057-0.035 0.113-0.072 0.172-0.104 0.049-0.027 0.101-0.050 0.152-0.075 0.059-0.029 0.117-0.060 0.179-0.086s0.112-0.042 0.168-0.064 0.118-0.047 0.18-0.066 0.128-0.034 0.192-0.050 0.114-0.032 0.172-0.044c0.076-0.016 0.153-0.025 0.23-0.036 0.049-0.007 0.096-0.017 0.146-0.022 0.116-0.013 0.251-0.020 0.388-0.020h0.54v-16.725h-0.541c-1.489 0.002-2.696 1.209-2.698 2.698v0z"></path>
<path d="M26.263 27.937v-2.158h-17.805c-1.49 0-2.698 1.208-2.698 2.698s1.208 2.698 2.698 2.698h17.805v-2.158h-17.805v-1.079z"></path>
<path d="M26.263 7.974h-16.187v16.726h16.187zM24.644 17.147c0 0.298-0.242 0.54-0.54 0.54v0h-11.87c-0.298 0-0.54-0.242-0.54-0.54v-5.396c0-0.298 0.242-0.54 0.54-0.54h11.87c0.298 0 0.54 0.242 0.54 0.54v0z"></path>
<path d="M24.105 2.579v-1.619h-5.396v5.935h5.396v-1.079h-2.158v-1.080h2.158v-1.078h-1.079v-1.079z"></path>
<path d="M11.156 3.658h1.619v3.237h-1.619z"></path>
<path d="M13.853 3.658h1.619v3.237h-1.619z"></path>
<path d="M11.919 2.579h2.79l-1.395-1.395z"></path>
</svg>
