<svg xmlns="http://www.w3.org/2000/svg" xmlns:xlink="http://www.w3.org/1999/xlink" viewBox="0 0 100 100">
  <defs>
    <style>
      .cls-1 {
        clip-path: url(#clip-System_upgrade);
      }

      .cls-2 {
        fill: #fff;
      }
    </style>
    <clipPath id="clip-System_upgrade">
      <rect width="100" height="100"/>
    </clipPath>
  </defs>
  <g id="System_upgrade" data-name="System upgrade" class="cls-1">
    <rect class="cls-2" width="100" height="100"/>
    <g id="ed519c02f134f2cdd836cba387b6a3c8" transform="translate(-7 -183.2)">
      <g id="Group_7" data-name="Group 7" transform="translate(10 204.2)">
        <g id="Group_6" data-name="Group 6">
          <g id="Group_5" data-name="Group 5">
            <path id="Path_28" data-name="Path 28" d="M10,288.29H69.087V238.6H10Zm5.983-44.984h47.13v32.759H15.983Z" transform="translate(-10 -235.564)"/>
            <rect id="Rectangle_1" data-name="Rectangle 1" width="20.737" height="3.221" transform="translate(21.661 54.128)"/>
            <path id="Path_29" data-name="Path 29" d="M732.3,204.2v55h22.74v-55Zm11.366,33.089a4.437,4.437,0,1,1,4-4.41A4.215,4.215,0,0,1,743.666,237.289Z" transform="translate(-660.04 -204.2)"/>
          </g>
        </g>
      </g>
    </g>
  </g>
</svg>
