<svg xmlns="http://www.w3.org/2000/svg" xmlns:xlink="http://www.w3.org/1999/xlink" viewBox="0 0 100 100">
  <defs>
    <style>
      .cls-1 {
        clip-path: url(#clip-path);
      }

      .cls-2 {
        fill: #fff;
      }
    </style>
    <clipPath id="clip-path">
      <rect id="Rectangle_2" data-name="Rectangle 2" width="100" height="100"/>
    </clipPath>
  </defs>
  <g id="Unable_to_access_Office" data-name="Unable to access Office" class="cls-1">
    <rect class="cls-2" width="100" height="100"/>
    <g id="Softwares-Office" class="cls-1">
      <rect id="Rectangle_1" data-name="Rectangle 1" class="cls-2" width="100" height="100"/>
      <g id="_93674e32a5a278cb819445ffa2f03ff1" data-name="93674e32a5a278cb819445ffa2f03ff1" transform="translate(-82.29 -7)">
        <g id="Group_4" data-name="Group 4" transform="translate(93.29 10)">
          <path id="Path_18" data-name="Path 18" d="M118.313-206.622,93.5-197.286l-.126,28.849-.084,28.849,1.135.462c7.191,2.86,49.2,18.126,49.876,18.126.505,0,6.982-1.766,14.383-3.953l13.457-3.911v-79.313l-13.457-3.911c-7.4-2.186-13.919-3.911-14.508-3.911S131.98-211.795,118.313-206.622Zm25.863,39.573c0,26.788-.126,33.853-.505,33.853-1.178.042-47.268-6.393-48.025-6.687-.547-.21,1.43-1.135,7.065-3.406l7.822-3.07v-46.428l6.644-1.6c3.617-.841,11.061-2.649,16.485-3.995s10.009-2.439,10.219-2.481c.168-.037.295,15.183.295,33.814Z" transform="translate(-93.29 216)"/>
        </g>
      </g>
    </g>
    <circle id="Ellipse_4" data-name="Ellipse 4" class="cls-2" cx="18" cy="18" r="18" transform="translate(64 2)"/>
    <rect id="Rectangle_5" data-name="Rectangle 5" width="5" height="26" transform="translate(70.54 12.575) rotate(-45)"/>
    <rect id="Rectangle_6" data-name="Rectangle 6" width="5" height="26" transform="translate(88.925 9.04) rotate(45)"/>
  </g>
</svg>
