<!-- Generated by IcoMoon.io -->
<svg version="1.1" xmlns="http://www.w3.org/2000/svg" width="32" height="32" viewBox="0 0 32 32">
<title>Webcam</title>
<path d="M14.695 0.696c-2.625 0.283-4.957 1.358-6.798 2.979l0.013-0.012c-2.503 2.245-4.071 5.491-4.071 9.102 0 4.169 2.089 7.85 5.278 10.053l0.041 0.027c1.872 1.286 4.188 2.054 6.683 2.054 0.317 0 0.631-0.012 0.942-0.037l-0.041 0.003c1.648-0.116 3.167-0.569 4.521-1.29l-0.061 0.030c1.202-0.594 2.228-1.352 3.098-2.26l0.004-0.004c0.88-0.86 1.616-1.863 2.17-2.973l0.029-0.064c0.845-1.612 1.341-3.521 1.341-5.546 0-1.359-0.223-2.666-0.635-3.886l0.025 0.086c-0.452-1.223-0.991-2.277-1.636-3.256l0.036 0.059c-2.203-3.11-5.787-5.115-9.839-5.115-0.388 0-0.771 0.018-1.15 0.054l0.048-0.004zM17.728 2.981c3.069 0.636 5.576 2.617 6.916 5.285l0.026 0.057c0.658 1.299 1.043 2.831 1.043 4.454 0 2.091-0.64 4.032-1.734 5.639l0.022-0.035c-0.741 1.009-1.596 1.875-2.561 2.603l-0.031 0.023c-1.497 1.077-3.367 1.723-5.388 1.723-0.081 0-0.161-0.001-0.242-0.003l0.012 0c-0.056 0.001-0.123 0.002-0.189 0.002-1.513 0-2.938-0.374-4.189-1.035l0.049 0.024c-2.789-1.434-4.794-4.058-5.354-7.183l-0.009-0.061c-0.076-0.511-0.119-1.1-0.119-1.7s0.043-1.189 0.127-1.765l-0.008 0.066c0.764-4.324 4.22-7.655 8.546-8.221l0.050-0.005c0.288-0.023 0.623-0.036 0.961-0.036 0.732 0 1.449 0.061 2.148 0.179l-0.075-0.010z"></path>
<path d="M14.776 11.153c-1.171 0.34-2.127 1.103-2.71 2.109l-0.012 0.022c-0.325 0.588-0.516 1.29-0.516 2.036 0 1.187 0.484 2.261 1.266 3.036l0 0c0.753 0.774 1.804 1.255 2.968 1.255 0.019 0 0.037-0 0.056-0l-0.003 0c0.044 0.002 0.096 0.003 0.148 0.003 1.136 0 2.158-0.486 2.87-1.261l0.003-0.003c0.553-0.515 0.959-1.18 1.156-1.93l0.006-0.028c0.067-0.319 0.105-0.686 0.105-1.062s-0.038-0.743-0.111-1.097l0.006 0.035c-0.413-1.487-1.545-2.639-2.989-3.072l-0.031-0.008c-0.355-0.085-0.763-0.134-1.183-0.134-0.364 0-0.719 0.037-1.062 0.107l0.034-0.006zM16.622 12.348c0.542 0.141 1.006 0.422 1.366 0.802l0.001 0.001c0.395 0.36 0.683 0.83 0.819 1.362l0.004 0.019c0.063 0.233 0.099 0.501 0.099 0.777 0 1.447-0.993 2.663-2.335 3.003l-0.021 0.005c-0.211 0.051-0.453 0.081-0.702 0.081-1.707 0-3.090-1.384-3.090-3.090 0-0.163 0.013-0.324 0.037-0.48l-0.002 0.017c0.251-1.48 1.524-2.593 3.057-2.593 0.273 0 0.537 0.035 0.789 0.101l-0.022-0.005z"></path>
<path d="M15.48 14.191c-0.72 0.178-1.246 0.819-1.246 1.583 0 0.152 0.021 0.3 0.060 0.44l-0.003-0.011c0.192 0.679 0.806 1.169 1.535 1.169 0.405 0 0.775-0.151 1.056-0.401l-0.002 0.001c0.343-0.296 0.559-0.731 0.559-1.216 0-0.726-0.483-1.339-1.146-1.536l-0.011-0.003c-0.131-0.051-0.282-0.081-0.44-0.081-0.13 0-0.255 0.020-0.372 0.057l0.009-0.002z"></path>
<path d="M5.070 25.544c-1.283 3.014-1.337 3.213-1.103 3.89 0.221 0.651 0.986 1.288 1.931 1.62 0.938 0.32 0.938 0.32 10.238 0.299 8.211-0.020 8.749-0.027 9.169-0.146 1.586-0.431 2.516-1.301 2.516-2.363 0-0.405-0.069-0.597-1.172-3.2-0.64-1.527-1.186-2.775-1.207-2.775-0.219 0.157-0.41 0.312-0.591 0.476l0.006-0.005c-1.295 1.059-2.805 1.919-4.445 2.503l-0.105 0.033c-1.333 0.45-2.868 0.709-4.464 0.709-1.801 0-3.525-0.33-5.114-0.934l0.099 0.033c-1.608-0.616-2.993-1.461-4.194-2.51l0.016 0.014-0.421-0.379z"></path>
</svg>
